project_1.verilog/project_1.verilog.sim/sim_1/behav/xsim/simulate.log
Time resolution is 1 ps
Time=0 clk=0 rst=1 light_M1=001 light_S=100 light_MT=100 light_M2=001
Time=10 clk=1 rst=1 light_M1=001 light_S=100 light_MT=100 light_M2=001
Time=20 clk=0 rst=1 light_M1=001 light_S=100 light_MT=100 light_M2=001
Time=30 clk=1 rst=1 light_M1=001 light_S=100 light_MT=100 light_M2=001
Time=40 clk=0 rst=1 light_M1=001 light_S=100 light_MT=100 light_M2=001
Time=50 clk=1 rst=0 light_M1=001 light_S=100 light_MT=100 light_M2=001
Time=60 clk=0 rst=0 light_M1=001 light_S=100 light_MT=100 light_M2=001
Time=70 clk=1 rst=0 light_M1=001 light_S=100 light_MT=100 light_M2=001
Time=80 clk=0 rst=0 light_M1=001 light_S=100 light_MT=100 light_M2=001
Time=90 clk=1 rst=0 light_M1=001 light_S=100 light_MT=100 light_M2=001
Time=100 clk=0 rst=0 light_M1=001 light_S=100 light_MT=100 light_M2=001
Time=110 clk=1 rst=0 light_M1=001 light_S=100 light_MT=100 light_M2=001
Time=120 clk=0 rst=0 light_M1=001 light_S=100 light_MT=100 light_M2=001
Time=130 clk=1 rst=0 light_M1=001 light_S=100 light_MT=100 light_M2=001
Time=140 clk=0 rst=0 light_M1=001 light_S=100 light_MT=100 light_M2=001
Time=150 clk=1 rst=0 light_M1=001 light_S=100 light_MT=100 light_M2=001
Time=160 clk=0 rst=0 light_M1=001 light_S=100 light_MT=100 light_M2=001
Time=170 clk=1 rst=0 light_M1=001 light_S=100 light_MT=100 light_M2=001
Time=180 clk=0 rst=0 light_M1=001 light_S=100 light_MT=100 light_M2=001
Time=190 clk=1 rst=0 light_M1=001 light_S=100 light_MT=100 light_M2=010
Time=200 clk=0 rst=0 light_M1=001 light_S=100 light_MT=100 light_M2=010
Time=210 clk=1 rst=0 light_M1=001 light_S=100 light_MT=100 light_M2=010
Time=220 clk=0 rst=0 light_M1=001 light_S=100 light_MT=100 light_M2=010
Time=230 clk=1 rst=0 light_M1=001 light_S=100 light_MT=100 light_M2=010
Time=240 clk=0 rst=0 light_M1=001 light_S=100 light_MT=100 light_M2=010
Time=250 clk=1 rst=0 light_M1=001 light_S=100 light_MT=001 light_M2=100
Time=260 clk=0 rst=0 light_M1=001 light_S=100 light_MT=001 light_M2=100
Time=270 clk=1 rst=0 light_M1=001 light_S=100 light_MT=001 light_M2=100
Time=280 clk=0 rst=0 light_M1=001 light_S=100 light_MT=001 light_M2=100
Time=290 clk=1 rst=0 light_M1=001 light_S=100 light_MT=001 light_M2=100
Time=300 clk=0 rst=0 light_M1=001 light_S=100 light_MT=001 light_M2=100
Time=310 clk=1 rst=0 light_M1=001 light_S=100 light_MT=001 light_M2=100
Time=320 clk=0 rst=0 light_M1=001 light_S=100 light_MT=001 light_M2=100
Time=330 clk=1 rst=0 light_M1=001 light_S=100 light_MT=001 light_M2=100
Time=340 clk=0 rst=0 light_M1=001 light_S=100 light_MT=001 light_M2=100
Time=350 clk=1 rst=0 light_M1=001 light_S=100 light_MT=001 light_M2=100
Time=360 clk=0 rst=0 light_M1=001 light_S=100 light_MT=001 light_M2=100
Time=370 clk=1 rst=0 light_M1=010 light_S=100 light_MT=010 light_M2=100
Time=380 clk=0 rst=0 light_M1=010 light_S=100 light_MT=010 light_M2=100
Time=390 clk=1 rst=0 light_M1=010 light_S=100 light_MT=010 light_M2=100
Time=400 clk=0 rst=0 light_M1=010 light_S=100 light_MT=010 light_M2=100
Time=410 clk=1 rst=0 light_M1=010 light_S=100 light_MT=010 light_M2=100
Time=420 clk=0 rst=0 light_M1=010 light_S=100 light_MT=010 light_M2=100
Time=430 clk=1 rst=0 light_M1=100 light_S=001 light_MT=100 light_M2=100
Time=440 clk=0 rst=0 light_M1=100 light_S=001 light_MT=100 light_M2=100
Time=450 clk=1 rst=0 light_M1=100 light_S=001 light_MT=100 light_M2=100
Time=460 clk=0 rst=0 light_M1=100 light_S=001 light_MT=100 light_M2=100
Time=470 clk=1 rst=0 light_M1=100 light_S=001 light_MT=100 light_M2=100
Time=480 clk=0 rst=0 light_M1=100 light_S=001 light_MT=100 light_M2=100
Time=490 clk=1 rst=0 light_M1=100 light_S=001 light_MT=100 light_M2=100
Time=500 clk=0 rst=0 light_M1=100 light_S=001 light_MT=100 light_M2=100
Time=510 clk=1 rst=0 light_M1=100 light_S=010 light_MT=100 light_M2=100
Time=520 clk=0 rst=0 light_M1=100 light_S=010 light_MT=100 light_M2=100
Time=530 clk=1 rst=0 light_M1=100 light_S=010 light_MT=100 light_M2=100
Time=540 clk=0 rst=0 light_M1=100 light_S=010 light_MT=100 light_M2=100
Time=550 clk=1 rst=0 light_M1=100 light_S=010 light_MT=100 light_M2=100
Time=560 clk=0 rst=0 light_M1=100 light_S=010 light